…
# Tokenize to bigrams

```r
ted_bigrams <- ted_talks %>% 
  unnest_tokens(bigram, text, token = "ngrams", n = 2)

ted_bigrams
```

```
## # A tibble: 2,004,350 x 3
##    talk_id speaker bigram     
##      <dbl> <chr>   <chr>      
##  1       1 Al Gore thank you  
##  2       1 Al Gore you so     
##  3       1 Al Gore so much    
##  4       1 Al Gore much chris 
##  5       1 Al Gore chris and  
##  6       1 Al Gore and it's   
##  7       1 Al Gore it's truly 
##  8       1 Al Gore truly a    
##  9       1 Al Gore a great    
## 10       1 Al Gore great honor
## # ... with 2,004,340 more rows
```

# Most common TED talk words

```r
tidy_talks %>% 
  count(word, sort = TRUE)
```

```
## # A tibble: 41,303 x 2
##    word      n
##    <chr> <int>
##  1 the   93853
##  2 and   67710
##  3 to    57089
##  4 of    52313
##  5 a     49129
##  6 that  39019
##  7 in    34728
##  8 i     32793
##  9 you   30013
## 10 is    28569
## # ... with 41,293 more rows
```

# Removing stop words

```r
get_stopwords(language = "en", source = "snowball")
```

```
## # A tibble: 175 x 2
##    word      lexicon 
##    <chr>     <chr>   
##  1 i         snowball
##  2 me        snowball
##  3 my        snowball
##  4 myself    snowball
##  5 we        snowball
##  6 our       snowball
##  7 ours      snowball
##  8 ourselves snowball
##  9 you       snowball
## 10 your      snowball
## # ... with 165 more rows
```
…
